# 3ds Max Wavefront OBJ Exporter v0.97b - (c)2007 guruware
# File Created: 28.10.2019 12:48:43

newmtl wire_255255255
	Ns 32
	d 1
	Tr 0
	Tf 1 1 1
	illum 2
	Ka 1.0000 1.0000 1.0000
	Kd 1.0000 1.0000 1.0000
	Ks 0.3500 0.3500 0.3500
