# 3ds Max Wavefront OBJ Exporter v0.97b - (c)2007 guruware
# File Created: 07.11.2019 11:23:24

mtllib CornerTileV2.mtl

#
# object CornerRoad
#

v  -50.0000 0.0000 25.0000
v  -50.0000 0.0000 50.0000
v  -25.0000 0.0000 25.0000
v  -25.0000 0.0000 50.0000
v  0.0000 0.0000 25.0000
v  0.0000 0.0000 50.0000
v  25.0000 0.0000 25.0000
v  25.0000 0.0000 50.0000
v  50.0000 0.0000 25.0000
v  50.0000 0.0000 50.0000
v  -50.0000 0.0000 -0.0000
v  -25.0000 0.0000 -0.0000
v  0.0000 0.0000 -0.0000
v  25.0000 0.0000 -0.0000
v  50.0000 0.0000 -0.0000
v  -50.0000 0.0000 -25.0000
v  -25.0000 0.0000 -25.0000
v  0.0000 0.0000 -25.0000
v  25.0000 0.0000 -25.0000
v  50.0000 0.0000 -25.0000
v  -50.0000 0.0000 -50.0000
v  -25.0000 0.0000 -50.0000
v  0.0000 0.0000 -50.0000
v  25.0000 0.0000 -50.0000
v  50.0000 0.0000 -50.0000
# 25 vertices

vn 0.0000 1.0000 -0.0000
# 1 vertex normals

vt 0.0000 0.2500 0.0000
vt 0.0000 0.0000 0.0000
vt 0.2500 0.2500 0.0000
vt 0.2500 0.0000 0.0000
vt 0.5000 0.2500 0.0000
vt 0.5000 0.0000 0.0000
vt 0.7500 0.2500 0.0000
vt 0.7500 0.0000 0.0000
vt 1.0000 0.2500 0.0000
vt 1.0000 0.0000 0.0000
vt 0.0000 0.5000 0.0000
vt 0.2500 0.5000 0.0000
vt 0.5000 0.5000 0.0000
vt 0.7500 0.5000 0.0000
vt 1.0000 0.5000 0.0000
vt 0.0000 0.7500 0.0000
vt 0.2500 0.7500 0.0000
vt 0.5000 0.7500 0.0000
vt 0.7500 0.7500 0.0000
vt 1.0000 0.7500 0.0000
vt 0.0000 1.0000 0.0000
vt 0.2500 1.0000 0.0000
vt 0.5000 1.0000 0.0000
vt 0.7500 1.0000 0.0000
vt 1.0000 1.0000 0.0000
# 25 texture coords

o CornerRoad
g CornerRoad
usemtl wire_026026026
s 1
f 1/1/1 2/2/1 3/3/1 
f 4/4/1 3/3/1 2/2/1 
f 3/3/1 4/4/1 5/5/1 
f 6/6/1 5/5/1 4/4/1 
f 5/5/1 6/6/1 7/7/1 
f 8/8/1 7/7/1 6/6/1 
f 7/7/1 8/8/1 9/9/1 
f 10/10/1 9/9/1 8/8/1 
f 11/11/1 1/1/1 12/12/1 
f 3/3/1 12/12/1 1/1/1 
f 12/12/1 3/3/1 13/13/1 
f 5/5/1 13/13/1 3/3/1 
f 13/13/1 5/5/1 14/14/1 
f 7/7/1 14/14/1 5/5/1 
f 14/14/1 7/7/1 15/15/1 
f 9/9/1 15/15/1 7/7/1 
f 16/16/1 11/11/1 17/17/1 
f 12/12/1 17/17/1 11/11/1 
f 17/17/1 12/12/1 18/18/1 
f 13/13/1 18/18/1 12/12/1 
f 18/18/1 13/13/1 19/19/1 
f 14/14/1 19/19/1 13/13/1 
f 19/19/1 14/14/1 20/20/1 
f 15/15/1 20/20/1 14/14/1 
f 21/21/1 16/16/1 22/22/1 
f 17/17/1 22/22/1 16/16/1 
f 22/22/1 17/17/1 23/23/1 
f 18/18/1 23/23/1 17/17/1 
f 23/23/1 18/18/1 24/24/1 
f 19/19/1 24/24/1 18/18/1 
f 24/24/1 19/19/1 25/25/1 
f 20/20/1 25/25/1 19/19/1 
# 32 faces

#
# object KerbL1
#

v  -49.9964 -0.0598 -50.0025
v  12.0631 -0.0598 -50.0025
v  12.0631 -0.0598 -33.2885
v  -49.9964 -0.0598 -33.2885
v  12.0631 0.7375 -33.4785
v  12.0631 0.7375 -50.0025
v  -49.9964 0.7375 -50.0025
v  -49.9964 0.7375 -33.4785
v  12.0631 0.5475 -33.2885
v  -49.9964 0.5475 -33.2885
v  50.0036 -0.0598 -33.2885
v  50.0036 -0.0598 -50.0025
v  50.0036 0.7375 -50.0025
v  50.0036 0.7375 -33.2885
v  -49.9964 0.6425 -33.3835
v  12.2531 0.7375 -33.2885
v  12.0631 0.6425 -33.3835
# 17 vertices

vn 0.0000 -1.0000 -0.0000
vn 0.0000 1.0000 -0.0000
vn 0.0000 0.0000 1.0000
vn 1.0000 0.0000 -0.0000
vn 0.0000 0.0000 -1.0000
vn -1.0000 0.0000 -0.0000
vn -0.5773 0.5774 0.5773
vn -0.5773 0.5774 0.5774
vn -0.5773 0.5773 0.5774
vn 0.0000 0.7071 0.7071
# 10 vertex normals

vt 1.0000 1.0000 0.0000
vt 0.3794 1.0000 0.0000
vt 0.3794 0.0000 0.0000
vt 1.0000 0.0000 0.0000
vt 0.6206 0.0114 0.0000
vt 0.6206 1.0000 0.0000
vt 0.0000 1.0000 0.0000
vt 0.0000 0.0114 0.0000
vt 0.6206 0.0000 0.0000
vt 0.6206 0.7617 0.0000
vt 0.0000 0.7617 0.0000
vt 0.0000 0.0000 0.0000
vt 1.0000 0.7617 0.0000
vt 0.9886 1.0000 0.0000
vt 0.6225 0.0000 0.0000
vt 0.6225 1.0000 0.0000
# 16 texture coords

o KerbL1
g KerbL1
usemtl wire_115115115
s 1
f 26/26/2 27/27/2 28/28/2 
f 28/28/2 29/29/2 26/26/2 
f 30/30/3 31/31/3 32/32/3 
f 32/32/3 33/33/3 30/30/3 
s 2
f 28/34/4 34/35/4 35/36/4 
f 35/36/4 29/37/4 28/34/4 
s 4
f 36/37/5 37/29/5 38/26/5 
f 38/26/5 39/32/5 36/37/5 
s 2
f 27/28/6 31/27/6 38/32/6 
f 38/32/6 37/37/6 27/28/6 
s 4
f 26/37/7 29/29/7 35/38/7 
f 26/37/7 35/38/7 40/26/7 
f 26/37/7 40/26/7 33/39/7 
f 26/37/7 33/39/7 32/32/7 
s 1
f 37/32/2 36/37/2 28/28/2 
f 28/28/2 27/27/2 37/32/2 
f 39/29/3 38/26/3 31/31/3 
f 41/40/3 39/29/3 31/31/3 
f 30/30/3 41/40/3 31/31/3 
s 2
f 39/26/4 41/41/4 34/35/4 
f 36/29/4 39/26/4 34/35/4 
f 28/34/4 36/29/4 34/35/4 
f 26/29/6 32/26/6 31/27/6 
f 31/27/6 27/28/6 26/29/6 
s 4
f 30/30/8 42/34/9 41/40/9 
f 41/41/9 42/31/9 34/35/10 
s 8
f 30/30/11 33/33/11 40/37/11 
f 40/37/11 42/34/11 30/30/11 
f 35/36/11 34/35/11 42/31/11 
f 42/31/11 40/32/11 35/36/11 
# 30 faces

#
# object KerbL2
#

v  33.2795 -0.0574 49.9829
v  33.2795 -0.0574 -12.0169
v  49.9935 -0.0574 -12.0169
v  49.9935 -0.0574 49.9829
v  49.9935 0.7399 -12.0169
v  33.4695 0.7399 -12.0169
v  33.4695 0.7399 49.9829
v  49.9935 0.7399 49.9829
v  49.9935 -0.0574 -33.2679
v  33.2795 -0.0574 -33.2679
v  33.2795 0.7399 -33.2679
v  49.9935 0.7399 -33.2679
v  33.2795 0.5499 -12.0169
v  33.2795 0.7399 -12.2069
v  33.3745 0.6449 49.9829
v  33.2795 0.5499 49.9829
v  33.3745 0.6449 -12.0169
# 17 vertices

vn -0.0000 -1.0000 -0.0000
vn 0.0000 -1.0000 -0.0000
vn -0.0000 1.0000 0.0000
vn 0.0000 1.0000 0.0000
vn 1.0000 0.0000 -0.0000
vn 1.0000 0.0000 0.0000
vn 0.0000 0.0000 -1.0000
vn -1.0000 0.0000 -0.0000
vn 0.0000 0.0000 1.0000
vn -0.5774 0.5774 0.5773
vn -0.7071 0.7071 -0.0000
# 11 vertex normals

vt 1.0000 1.0000 0.0000
vt 0.2553 1.0000 0.0000
vt 0.2553 0.0000 0.0000
vt 1.0000 0.0000 0.0000
vt 0.7447 0.0000 0.0000
vt 0.7447 0.9886 0.0000
vt 0.0000 0.9886 0.0000
vt 0.0000 0.0000 0.0000
vt 0.7447 1.0000 0.0000
vt 0.0000 1.0000 0.0000
vt 0.2553 0.7617 0.0000
vt 0.2530 1.0000 0.0000
vt 0.0114 1.0000 0.0000
vt 0.0000 0.7617 0.0000
vt 0.7470 1.0000 0.0000
vt 1.0000 0.7617 0.0000
# 16 texture coords

o KerbL2
g KerbL2
usemtl wire_115115115
s 1
f 43/42/12 44/43/12 45/44/12 
f 45/44/12 46/45/13 43/42/12 
f 47/46/14 48/47/14 49/48/14 
f 49/48/14 50/49/15 47/46/14 
s 2
f 45/46/16 47/50/16 50/51/17 
f 50/51/17 46/49/17 45/46/16 
s 4
f 51/49/18 52/45/18 53/42/18 
f 53/42/18 54/51/18 51/49/18 
s 2
f 44/44/19 55/52/19 56/53/19 
f 44/44/19 56/53/19 53/51/19 
f 52/49/19 44/44/19 53/51/19 
s 4
f 43/49/20 46/45/20 50/42/20 
f 50/42/20 49/54/20 57/51/20 
f 43/49/20 50/42/20 57/51/20 
f 43/49/20 57/51/20 58/55/20 
s 1
f 52/51/12 51/49/13 45/44/12 
f 45/44/12 44/43/12 52/51/12 
f 53/42/14 56/56/14 48/47/14 
f 54/45/14 53/42/14 48/47/14 
f 47/46/14 54/45/14 48/47/14 
s 2
f 51/45/16 54/42/16 47/50/16 
f 47/50/16 45/46/16 51/45/16 
f 43/45/19 58/57/19 55/52/19 
f 55/52/19 44/44/19 43/45/19 
s 4
f 55/52/21 59/43/21 56/53/21 
f 56/56/21 59/50/21 48/47/21 
s 8
f 49/48/22 48/47/22 59/50/22 
f 59/50/22 57/51/22 49/48/22 
f 55/52/22 58/57/22 57/42/22 
f 57/42/22 59/43/22 55/52/22 
# 30 faces

#
# object KerbCornerInside
#

v  -50.0056 -0.0598 49.9953
v  -50.0056 -0.0598 33.2813
v  -40.3319 -0.0598 33.2813
v  -38.0845 -0.0598 34.2409
v  -35.6134 -0.0598 35.7984
v  -34.0994 -0.0598 38.2882
v  -33.2519 -0.0598 40.3613
v  -33.2519 -0.0598 49.9953
v  -33.4419 0.7375 49.9953
v  -33.4419 0.7375 40.3986
v  -34.2696 0.7375 38.3741
v  -35.7525 0.7375 35.9353
v  -38.1730 0.7375 34.4097
v  -40.3708 0.7375 33.4713
v  -50.0056 0.7375 33.4713
v  -50.0056 0.7375 49.9953
v  -33.2519 0.5475 49.9953
v  -33.3469 0.6425 49.9953
v  -33.2519 0.5475 40.3613
v  -50.0056 0.5475 33.2813
v  -40.3319 0.5475 33.2813
v  -50.0056 0.6425 33.3763
v  -34.0994 0.5475 38.2882
v  -38.0845 0.5475 34.2409
v  -35.6134 0.5475 35.7984
v  -33.3469 0.6425 40.3800
v  -34.1845 0.6425 38.3312
v  -35.6829 0.6425 35.8669
v  -38.1288 0.6425 34.3253
v  -40.3513 0.6425 33.3763
# 30 vertices

vn 0.0000 -1.0000 -0.0000
vn 0.0000 1.0000 -0.0000
vn 0.0000 0.0000 1.0000
vn 0.9812 0.0000 -0.1928
vn 1.0000 0.0000 -0.0000
vn 0.0000 0.0000 -1.0000
vn 0.2004 0.0000 -0.9797
vn -1.0000 0.0000 -0.0000
vn 0.8928 0.0000 -0.4504
vn 0.4644 0.0000 -0.8856
vn 0.7128 0.0000 -0.7014
vn 0.6872 0.7138 -0.1351
vn 0.7071 0.7071 -0.0000
vn 0.6303 0.7082 -0.3180
vn 0.4971 0.7166 -0.4892
vn 0.4972 0.7166 -0.4892
vn 0.3279 0.7082 -0.6252
vn 0.1403 0.7143 -0.6856
vn 0.0000 0.7071 -0.7071
vn 0.3279 0.7082 -0.6253
vn 0.4972 0.7166 -0.4893
# 21 vertex normals

vt 1.0000 0.0000 0.0000
vt 1.0000 1.0000 0.0000
vt 0.4226 1.0000 0.0000
vt 0.2353 1.0000 0.0000
vt 0.0000 1.0000 0.0000
vt 0.0000 0.7551 0.0000
vt 0.0000 0.5764 0.0000
vt 0.0000 0.0000 0.0000
vt 0.9887 0.0000 0.0000
vt 0.9943 0.5800 0.0000
vt 1.0000 0.7602 0.0000
vt 0.9999 1.0001 0.0000
vt 0.7694 1.0000 0.0000
vt 0.5807 0.9943 0.0000
vt 0.0000 0.9886 0.0000
vt 1.0000 0.7617 0.0000
vt 0.9887 1.0000 0.0000
vt 0.5764 0.0000 0.0000
vt 0.5764 0.7617 0.0000
vt 0.0000 0.7617 0.0000
vt 0.4226 0.7617 0.0000
vt 0.4226 0.0000 0.0000
vt 0.0114 1.0000 0.0000
vt 0.7551 0.0000 0.0000
vt 0.7551 0.7617 0.0000
vt 0.2353 0.7617 0.0000
vt 0.2353 0.0000 0.0000
vt 1.0000 0.5764 0.0000
vt 1.0000 0.7551 0.0000
vt 0.7647 1.0000 0.0000
vt 0.5774 1.0000 0.0000
vt 0.5764 1.0000 0.0000
vt 0.7551 1.0000 0.0000
# 33 texture coords

o KerbCornerInside
g KerbCornerInside
usemtl wire_115115115
s 1
f 60/58/23 61/59/23 62/60/23 
f 62/60/23 63/61/23 64/62/23 
f 64/62/23 65/63/23 66/64/23 
f 62/60/23 64/62/23 66/64/23 
f 60/58/23 62/60/23 66/64/23 
f 60/58/23 66/64/23 67/65/23 
f 68/66/24 69/67/24 70/68/24 
f 70/68/24 71/69/24 72/70/24 
f 68/66/24 70/68/24 72/70/24 
f 72/70/24 73/71/24 74/72/24 
f 68/66/24 72/70/24 74/72/24 
f 75/65/24 68/66/24 74/72/24 
s 2
f 60/65/25 67/58/25 76/73/25 
f 60/65/25 76/73/25 77/59/25 
f 60/65/25 77/59/25 68/74/25 
f 60/65/25 68/74/25 75/62/25 
s 4
f 66/75/26 78/76/26 76/77/27 
f 76/77/27 67/65/27 66/75/26 
f 61/58/28 79/73/28 80/78/29 
f 80/78/29 62/79/29 61/58/28 
s 8
f 61/65/30 60/58/30 75/59/30 
f 75/59/30 74/80/30 81/62/30 
f 61/65/30 75/59/30 81/62/30 
f 61/65/30 81/62/30 79/77/30 
s 4
f 66/75/26 65/81/31 82/82/31 
f 82/82/31 78/76/26 66/75/26 
f 80/78/29 83/83/32 63/84/32 
f 63/84/32 62/79/29 80/78/29 
f 65/81/31 64/58/33 84/73/33 
f 84/73/33 82/82/31 65/81/31 
f 83/83/32 84/77/33 64/65/33 
f 64/65/33 63/84/32 83/83/32 
s 16
f 69/67/34 68/66/35 77/58/35 
f 77/58/35 85/85/34 69/67/34 
f 70/68/36 69/67/34 85/85/34 
f 85/85/34 86/86/36 70/68/36 
f 71/69/37 70/68/36 86/86/36 
f 86/86/36 87/59/38 71/69/37 
f 72/70/39 71/69/37 87/59/38 
f 87/59/38 88/87/39 72/70/39 
f 73/71/40 72/70/39 88/87/39 
f 88/87/39 89/88/40 73/71/40 
f 74/72/41 73/71/40 89/88/40 
f 89/88/40 81/62/41 74/72/41 
f 76/77/35 78/76/34 85/89/34 
f 85/89/34 77/62/35 76/77/35 
f 80/78/40 79/73/41 81/59/41 
f 81/59/41 89/60/40 80/78/40 
f 78/76/34 82/82/36 86/90/36 
f 86/90/36 85/89/34 78/76/34 
f 83/83/42 80/78/40 89/60/40 
f 89/60/40 88/61/39 83/83/42 
f 82/82/36 84/73/43 87/59/38 
f 87/59/38 86/90/36 82/82/36 
f 84/77/43 83/83/42 88/61/39 
f 88/61/39 87/62/38 84/77/43 
# 56 faces

#
# object KerbCornerOutside
#

v  30.7328 0.5551 -18.2457
v  30.7328 -0.8266 -18.2457
v  33.2781 -0.8266 -12.0381
v  33.2781 0.5551 -12.0381
v  26.1909 0.5551 -25.7152
v  26.1909 -0.8266 -25.7152
v  18.7775 -0.8266 -30.3876
v  18.7775 0.5551 -30.3876
v  12.0414 0.5551 -33.2871
v  12.0414 -0.8266 -33.2871
v  33.2808 0.7451 -33.3077
v  33.2808 -0.8266 -33.3077
v  12.1364 0.6501 -33.2872
v  12.2314 0.7451 -33.2873
v  33.2781 0.7451 -12.2281
v  33.2781 0.6501 -12.1331
v  30.7645 0.7451 -18.4330
v  26.3206 0.7451 -25.8540
v  18.9637 0.7451 -30.4251
v  30.7487 0.6501 -18.3393
v  26.2557 0.6501 -25.7846
v  18.8706 0.6501 -30.4063
# 22 vertices

vn -0.8691 0.2579 0.4222
vn -0.8926 0.0000 0.4509
vn -0.9252 0.0000 0.3794
vn -0.9177 0.1272 0.3763
vn -0.6542 0.4033 0.6398
vn -0.7128 0.0000 0.7014
vn -0.4657 0.0000 0.8849
vn -0.4356 0.2734 0.8576
vn -0.3912 0.1331 0.9106
vn -0.3954 0.0000 0.9185
vn -0.0010 0.0000 -1.0000
vn 1.0000 -0.0000 0.0001
vn 1.0000 0.0000 0.0001
vn -0.0000 1.0000 0.0000
vn 0.0000 1.0000 0.0000
vn 0.0000 1.0000 -0.0000
vn 0.0000 -1.0000 -0.0000
vn -0.0000 -1.0000 -0.0000
vn -0.8652 0.3550 0.3542
vn -0.7706 0.5081 0.3848
vn -0.5061 0.7062 0.4951
vn -0.3907 0.5315 0.7515
vn -0.3654 0.3669 0.8555
vn -0.8661 0.3540 0.3530
vn -0.7501 0.5240 0.4034
vn -0.5035 0.7062 0.4977
vn -0.4077 0.5437 0.7336
vn -0.3642 0.3651 0.8568
# 28 vertex normals

vt 0.7551 0.7235 0.0000
vt 0.7551 0.1458 0.0000
vt 0.5764 0.1458 0.0000
vt 0.5764 0.7235 0.0000
vt 1.0000 0.7235 0.0000
vt 1.0000 0.1458 0.0000
vt 0.2353 0.1458 0.0000
vt 0.2353 0.7235 0.0000
vt 0.4226 0.7235 0.0000
vt 0.4226 0.1458 0.0000
vt 0.0000 0.1458 0.0000
vt 0.0000 0.7235 0.0000
vt 1.0000 1.0000 0.0000
vt 1.0000 0.0000 0.0000
vt 1.0000 0.8791 0.0000
vt 0.7581 0.8054 0.0000
vt 0.5802 0.8047 0.0000
vt 1.0000 0.8065 0.0000
vt 0.2451 0.8054 0.0000
vt 0.4278 0.8047 0.0000
vt 0.5764 0.8029 0.0000
vt 0.7551 0.8029 0.0000
vt 1.0000 0.8029 0.0000
vt 0.2353 0.8029 0.0000
vt 0.4226 0.8029 0.0000
vt 0.0000 0.8029 0.0000
# 26 texture coords

o KerbCornerOutside
g KerbCornerOutside
usemtl wire_115115115
s 1
f 90/91/44 91/92/45 92/93/46 
f 92/93/46 93/94/47 90/91/44 
f 94/95/48 95/96/49 91/92/45 
f 91/92/45 90/91/44 94/95/48 
f 96/97/50 97/98/51 98/99/52 
f 98/99/52 99/100/53 96/97/50 
f 95/101/49 94/102/48 97/98/51 
f 97/98/51 96/97/50 95/101/49 
s 2
f 100/103/54 101/104/54 99/104/54 
f 99/104/54 98/105/54 102/103/54 
f 100/103/54 99/104/54 102/103/54 
f 100/103/54 102/103/54 103/103/54 
s 4
f 101/104/55 100/103/56 104/103/55 
f 101/104/55 104/103/55 105/103/55 
f 101/104/55 105/103/55 93/105/55 
f 101/104/55 93/105/55 92/104/56 
s 8
f 100/103/57 106/106/57 104/107/57 
f 100/103/57 107/108/57 106/106/57 
f 100/103/57 108/109/58 107/108/57 
f 100/103/57 103/110/59 108/109/58 
f 96/97/60 99/100/61 101/104/60 
f 95/96/60 96/97/60 101/104/60 
f 91/92/60 95/96/60 101/104/60 
f 92/93/60 91/92/60 101/104/60 
s 1
f 90/91/44 93/94/47 105/111/62 
f 105/111/62 109/112/63 90/91/44 
f 94/95/48 90/91/44 109/112/63 
f 109/112/63 110/113/64 94/95/48 
f 98/99/52 97/98/51 111/114/65 
f 111/114/65 102/115/66 98/99/52 
f 97/98/51 94/102/48 110/116/64 
f 110/116/64 111/114/65 97/98/51 
f 104/107/67 106/106/68 109/112/63 
f 109/112/63 105/111/62 104/107/67 
f 106/106/68 107/108/69 110/113/64 
f 110/113/64 109/112/63 106/106/68 
f 107/108/69 108/109/70 111/114/65 
f 111/114/65 110/113/64 107/108/69 
f 108/109/70 103/110/71 102/115/66 
f 102/115/66 111/114/65 108/109/70 
# 40 faces

#
# object Box001
#

v  -41.8402 -0.6327 1.0187
v  -41.8402 -0.6327 -0.9017
v  -19.9015 -0.6327 -0.9017
v  -19.9015 -0.6327 1.0187
v  -41.8402 0.0170 1.0187
v  -19.9015 0.0170 1.0187
v  -19.9015 0.0170 -0.9017
v  -41.8402 0.0170 -0.9017
# 8 vertices

vn 0.0000 -1.0000 -0.0000
vn 0.0000 1.0000 -0.0000
vn 0.0000 0.0000 1.0000
vn 1.0000 0.0000 -0.0000
vn 0.0000 0.0000 -1.0000
vn -1.0000 0.0000 -0.0000
# 6 vertex normals

vt 1.0000 0.0000 0.0000
vt 1.0000 1.0000 0.0000
vt 0.0000 1.0000 0.0000
vt 0.0000 0.0000 0.0000
# 4 texture coords

o Box001
g Box001
usemtl wire_255255255
s 2
f 112/117/72 113/118/72 114/119/72 
f 114/119/72 115/120/72 112/117/72 
s 4
f 116/120/73 117/117/73 118/118/73 
f 118/118/73 119/119/73 116/120/73 
s 8
f 112/120/74 115/117/74 117/118/74 
f 117/118/74 116/119/74 112/120/74 
s 16
f 115/120/75 114/117/75 118/118/75 
f 118/118/75 117/119/75 115/120/75 
s 32
f 114/120/76 113/117/76 119/118/76 
f 119/118/76 118/119/76 114/120/76 
s 64
f 113/120/77 112/117/77 116/118/77 
f 116/118/77 119/119/77 113/120/77 
# 12 faces

#
# object Box002
#

v  -8.1693 -0.6327 1.0187
v  -8.1693 -0.6327 -0.9017
v  -0.0018 -0.6327 -0.9017
v  -0.0018 -0.6327 1.0187
v  -8.1693 0.0170 1.0187
v  -0.0018 0.0170 1.0187
v  -0.0018 0.0170 -0.9017
v  -8.1693 0.0170 -0.9017
# 8 vertices

vn 0.0000 -1.0000 -0.0000
vn 0.0000 1.0000 -0.0000
vn 0.0000 0.0000 1.0000
vn 1.0000 0.0000 -0.0000
vn 0.0000 0.0000 -1.0000
vn -1.0000 0.0000 -0.0000
# 6 vertex normals

vt 1.0000 0.0000 0.0000
vt 1.0000 1.0000 0.0000
vt 0.0000 1.0000 0.0000
vt 0.0000 0.0000 0.0000
# 4 texture coords

o Box002
g Box002
usemtl wire_255255255
s 2
f 120/121/78 121/122/78 122/123/78 
f 122/123/78 123/124/78 120/121/78 
s 4
f 124/124/79 125/121/79 126/122/79 
f 126/122/79 127/123/79 124/124/79 
s 8
f 120/124/80 123/121/80 125/122/80 
f 125/122/80 124/123/80 120/124/80 
s 16
f 123/124/81 122/121/81 126/122/81 
f 126/122/81 125/123/81 123/124/81 
s 32
f 122/124/82 121/121/82 127/122/82 
f 127/122/82 126/123/82 122/124/82 
s 64
f 121/124/83 120/121/83 124/122/83 
f 124/122/83 127/123/83 121/124/83 
# 12 faces

#
# object Box003
#

v  0.9123 -0.6327 10.0067
v  -1.0081 -0.6327 10.0067
v  -1.0081 -0.6327 -0.8734
v  0.9123 -0.6327 -0.8734
v  0.9123 0.0170 10.0067
v  0.9123 0.0170 -0.8734
v  -1.0081 0.0170 -0.8734
v  -1.0081 0.0170 10.0067
# 8 vertices

vn 0.0000 -1.0000 -0.0000
vn 0.0000 1.0000 -0.0000
vn 1.0000 0.0000 -0.0000
vn -0.0000 0.0000 -1.0000
vn -1.0000 0.0000 0.0000
vn 0.0000 0.0000 1.0000
# 6 vertex normals

vt 1.0000 0.0000 0.0000
vt 1.0000 1.0000 0.0000
vt 0.0000 1.0000 0.0000
vt 0.0000 0.0000 0.0000
# 4 texture coords

o Box003
g Box003
usemtl wire_255255255
s 2
f 128/125/84 129/126/84 130/127/84 
f 130/127/84 131/128/84 128/125/84 
s 4
f 132/128/85 133/125/85 134/126/85 
f 134/126/85 135/127/85 132/128/85 
s 8
f 128/128/86 131/125/86 133/126/86 
f 133/126/86 132/127/86 128/128/86 
s 16
f 131/128/87 130/125/87 134/126/87 
f 134/126/87 133/127/87 131/128/87 
s 32
f 130/128/88 129/125/88 135/126/88 
f 135/126/88 134/127/88 130/128/88 
s 64
f 129/128/89 128/125/89 132/126/89 
f 132/126/89 135/127/89 129/128/89 
# 12 faces

#
# object Object001
#

v  -0.9372 -0.6327 21.8219
v  0.9832 -0.6327 21.8219
v  0.9832 -0.6327 43.7606
v  -0.9372 -0.6327 43.7606
v  -0.9372 0.0170 21.8219
v  -0.9372 0.0170 43.7606
v  0.9832 0.0170 43.7606
v  0.9832 0.0170 21.8219
# 8 vertices

vn 0.0000 -1.0000 -0.0000
vn 0.0000 1.0000 0.0000
vn -1.0000 0.0000 -0.0000
vn 0.0000 0.0000 1.0000
vn 1.0000 0.0000 -0.0000
vn 0.0000 0.0000 -1.0000
# 6 vertex normals

vt 1.0000 0.0000 0.0000
vt 1.0000 1.0000 0.0000
vt 0.0000 1.0000 0.0000
vt 0.0000 0.0000 0.0000
# 4 texture coords

o Object001
g Object001
usemtl wire_255255255
s 2
f 136/129/90 137/130/90 138/131/90 
f 138/131/90 139/132/90 136/129/90 
s 4
f 140/132/91 141/129/91 142/130/91 
f 142/130/91 143/131/91 140/132/91 
s 8
f 136/132/92 139/129/92 141/130/92 
f 141/130/92 140/131/92 136/132/92 
s 16
f 139/132/93 138/129/93 142/130/93 
f 142/130/93 141/131/93 139/132/93 
s 32
f 138/132/94 137/129/94 143/130/94 
f 143/130/94 142/131/94 138/132/94 
s 64
f 137/132/95 136/129/95 140/130/95 
f 140/130/95 143/131/95 137/132/95 
# 12 faces

