# 3ds Max Wavefront OBJ Exporter v0.97b - (c)2007 guruware
# File Created: 02.11.2019 15:01:17

newmtl wire_008008008
	Ns 32
	d 1
	Tr 0
	Tf 1 1 1
	illum 2
	Ka 0.0314 0.0314 0.0314
	Kd 0.0314 0.0314 0.0314
	Ks 0.3500 0.3500 0.3500

newmtl wire_115115115
	Ns 32
	d 1
	Tr 0
	Tf 1 1 1
	illum 2
	Ka 0.4510 0.4510 0.4510
	Kd 0.4510 0.4510 0.4510
	Ks 0.3500 0.3500 0.3500

newmtl wire_000000000
	Ns 32
	d 1
	Tr 0
	Tf 1 1 1
	illum 2
	Ka 0.0000 0.0000 0.0000
	Kd 0.0000 0.0000 0.0000
	Ks 0.3500 0.3500 0.3500

newmtl wire_135006006
	Ns 32
	d 1
	Tr 0
	Tf 1 1 1
	illum 2
	Ka 0.5294 0.0235 0.0235
	Kd 0.5294 0.0235 0.0235
	Ks 0.3500 0.3500 0.3500

newmtl wire_244247007
	Ns 32
	d 1
	Tr 0
	Tf 1 1 1
	illum 2
	Ka 0.9569 0.9686 0.0275
	Kd 0.9569 0.9686 0.0275
	Ks 0.3500 0.3500 0.3500

newmtl wire_014164007
	Ns 32
	d 1
	Tr 0
	Tf 1 1 1
	illum 2
	Ka 0.0549 0.6431 0.0275
	Kd 0.0549 0.6431 0.0275
	Ks 0.3500 0.3500 0.3500

newmtl wire_007007255
	Ns 32
	d 1
	Tr 0
	Tf 1 1 1
	illum 2
	Ka 0.0275 0.0275 1.0000
	Kd 0.0275 0.0275 1.0000
	Ks 0.3500 0.3500 0.3500
