# 3ds Max Wavefront OBJ Exporter v0.97b - (c)2007 guruware
# File Created: 08.11.2019 14:43:26

mtllib VRHeadsetV1.mtl

#
# object Box001
#

v  -1.0689 -1.1245 2.2658
v  -1.0689 -1.1245 -2.2129
v  0.8060 -1.1245 -2.2658
v  0.8060 -1.1245 2.2129
v  -1.0689 1.1245 2.2658
v  0.8060 1.1245 2.2129
v  0.8060 1.1245 -2.2658
v  -1.0689 1.1245 -2.2129
v  -1.0689 -0.8845 2.5058
v  0.8060 -0.8845 2.4529
v  0.8060 0.8845 2.4529
v  -1.0689 0.8845 2.5058
v  1.0460 -0.8845 2.2129
v  1.0460 -0.8845 -2.2658
v  1.0460 0.8845 -2.2658
v  1.0460 0.8845 2.2129
v  0.8060 -0.8845 -2.5058
v  -1.0689 -0.8845 -2.4529
v  -1.0689 0.8845 -2.4529
v  0.8060 0.8845 -2.5058
v  -0.5201 -0.8845 -2.2129
v  -0.5201 -0.8845 2.2658
v  -0.5201 0.8845 2.2658
v  -0.5201 0.8845 -2.2129
# 24 vertices

vn 0.0000 -1.0000 -0.0000
vn 0.0000 1.0000 -0.0000
vn 0.0282 0.0000 0.9996
vn 1.0000 0.0000 -0.0000
vn -0.0282 0.0000 -0.9996
vn -1.0000 0.0000 -0.0000
vn -0.2954 0.6755 -0.6755
vn 0.5774 -0.5774 0.5774
vn -0.2954 0.6755 0.6755
vn 0.5774 -0.5774 -0.5774
vn -0.2954 -0.6755 -0.6755
vn 0.5774 0.5774 0.5774
vn -0.2954 -0.6755 0.6755
vn 0.5774 0.5774 -0.5774
vn -0.4007 0.9162 -0.0000
vn -0.0200 -0.7070 -0.7070
vn 0.7071 -0.7071 -0.0000
vn 0.0200 -0.7070 0.7070
vn 0.0200 0.7070 0.7070
vn 0.7071 0.7071 -0.0000
vn -0.0200 0.7070 -0.7070
vn -0.4007 -0.9162 -0.0000
vn 0.7071 0.0000 0.7071
vn -0.4007 0.0000 -0.9162
vn 0.7071 0.0000 -0.7071
vn -0.4007 0.0000 0.9162
# 26 vertex normals

vt 0.9356 0.0484 0.0000
vt 0.9356 0.9516 0.0000
vt 0.0644 0.9516 0.0000
vt 0.0644 0.0484 0.0000
vt 0.0644 0.1067 0.0000
vt 0.9356 0.1067 0.0000
vt 0.9356 0.8933 0.0000
vt 0.0644 0.8933 0.0000
vt 0.0484 0.1067 0.0000
vt 0.9516 0.1067 0.0000
vt 0.9516 0.8933 0.0000
vt 0.0484 0.8933 0.0000
vt -0.0124 0.1761 0.0000
vt -0.0411 0.0225 0.0000
vt -0.0337 0.1320 0.0000
vt -0.0337 0.0285 0.0000
vt -0.0283 0.1761 0.0000
vt -0.0507 0.0225 0.0000
vt -0.0337 0.9715 0.0000
vt -0.0337 0.8680 0.0000
vt -0.0411 0.9775 0.0000
vt -0.0124 0.8239 0.0000
vt -0.0507 0.9775 0.0000
vt -0.0283 0.8239 0.0000
vt 0.9516 0.0078 0.0000
vt 0.0484 0.0078 0.0000
vt 0.9356 0.1395 0.0000
vt 0.0644 0.1395 0.0000
vt 0.0644 0.8605 0.0000
vt 0.9356 0.8605 0.0000
vt 0.0484 0.9922 0.0000
vt 0.9516 0.9922 0.0000
vt 0.1993 0.1067 0.0000
vt 0.1993 0.8933 0.0000
vt 0.8007 0.8933 0.0000
vt 0.8007 0.1067 0.0000
vt 0.2153 0.1067 0.0000
vt 0.2153 0.8933 0.0000
# 38 texture coords

o Box001
g Box001
usemtl wire_005005005
s 1
f 1/1/1 2/2/1 3/3/1 
f 3/3/1 4/4/1 1/1/1 
f 5/4/2 6/1/2 7/2/2 
f 7/2/2 8/3/2 5/4/2 
f 9/5/3 10/6/3 11/7/3 
f 11/7/3 12/8/3 9/5/3 
f 13/9/4 14/10/4 15/11/4 
f 15/11/4 16/12/4 13/9/4 
f 17/5/5 18/6/5 19/7/5 
f 19/7/5 20/8/5 17/5/5 
f 21/9/6 22/10/6 23/11/6 
f 23/11/6 24/12/6 21/9/6 
s 2
f 9/5/7 22/13/7 1/14/7 
f 4/4/8 13/15/8 10/16/8 
f 21/9/9 18/17/9 2/18/9 
f 3/3/10 17/19/10 14/20/10 
f 12/8/11 5/21/11 23/22/11 
f 16/12/12 6/23/12 11/24/12 
f 24/12/13 8/23/13 19/24/13 
f 20/8/14 7/21/14 15/22/14 
s 4
f 1/25/15 22/10/15 21/9/15 
f 21/9/15 2/26/15 1/25/15 
s 8
f 2/27/16 18/6/16 17/5/16 
f 17/5/16 3/28/16 2/27/16 
s 4
f 3/25/17 14/10/17 13/9/17 
f 13/9/17 4/26/17 3/25/17 
s 8
f 4/27/18 10/6/18 9/5/18 
f 9/5/18 1/28/18 4/27/18 
s 4
f 5/29/19 12/8/19 11/7/19 
f 11/7/19 6/30/19 5/29/19 
s 8
f 6/31/20 16/12/20 15/11/20 
f 15/11/20 7/32/20 6/31/20 
s 4
f 7/29/21 20/8/21 19/7/21 
f 19/7/21 8/30/21 7/29/21 
s 8
f 8/31/22 24/12/22 23/11/22 
f 23/11/22 5/32/22 8/31/22 
s 16
f 10/33/23 13/9/23 16/12/23 
f 16/12/23 11/34/23 10/33/23 
f 12/35/24 23/11/24 22/10/24 
f 22/10/24 9/36/24 12/35/24 
f 14/37/25 17/5/25 20/8/25 
f 20/8/25 15/38/25 14/37/25 
f 18/33/26 21/9/26 24/12/26 
f 24/12/26 19/34/26 18/33/26 
# 44 faces

#
# object Cylinder001
#

v  -0.6004 0.0162 1.0978
v  -0.6004 -0.5831 0.8797
v  -0.6004 -0.6215 1.0978
v  -0.6004 -0.4723 0.6878
v  -0.6004 -0.3026 0.5455
v  -0.6004 -0.0945 0.4697
v  -0.6004 0.1270 0.4697
v  -0.6004 0.3351 0.5455
v  -0.6004 0.5048 0.6878
v  -0.6004 0.6156 0.8797
v  -0.6004 0.6540 1.0978
v  -0.6004 0.6156 1.3159
v  -0.6004 0.5048 1.5078
v  -0.6004 0.3351 1.6501
v  -0.6004 0.1270 1.7259
v  -0.6004 -0.0945 1.7259
v  -0.6004 -0.3026 1.6501
v  -0.6004 -0.4723 1.5078
v  -0.6004 -0.5831 1.3159
v  -0.3955 -0.5831 0.8797
v  -0.3955 -0.6215 1.0978
v  -0.3955 -0.4723 0.6878
v  -0.3955 -0.3026 0.5455
v  -0.3955 -0.0945 0.4697
v  -0.3955 0.1270 0.4697
v  -0.3955 0.3351 0.5455
v  -0.3955 0.5048 0.6878
v  -0.3955 0.6156 0.8797
v  -0.3955 0.6540 1.0978
v  -0.3955 0.6156 1.3159
v  -0.3955 0.5048 1.5078
v  -0.3955 0.3351 1.6501
v  -0.3955 0.1270 1.7259
v  -0.3955 -0.0945 1.7259
v  -0.3955 -0.3026 1.6501
v  -0.3955 -0.4723 1.5078
v  -0.3955 -0.5831 1.3159
v  -0.3955 0.0162 1.0978
# 38 vertices

vn -1.0000 0.0000 -0.0000
vn -0.0000 -1.0000 0.0000
vn -0.0000 -0.9397 -0.3420
vn -0.0000 -0.7660 -0.6428
vn -0.0000 -0.5000 -0.8660
vn -0.0000 -0.1736 -0.9848
vn 0.0000 0.1736 -0.9848
vn 0.0000 0.5000 -0.8660
vn 0.0000 0.7660 -0.6428
vn 0.0000 0.9397 -0.3420
vn 0.0000 1.0000 -0.0000
vn 0.0000 0.9397 0.3420
vn 0.0000 0.7660 0.6428
vn 0.0000 0.5000 0.8660
vn 0.0000 0.1736 0.9848
vn -0.0000 -0.1736 0.9848
vn -0.0000 -0.5000 0.8660
vn -0.0000 -0.7660 0.6428
vn -0.0000 -0.9397 0.3420
vn 1.0000 -0.0000 -0.0000
# 20 vertex normals

vt 0.5000 0.0000 0.0000
vt 0.8056 0.0000 1.0000
vt 0.7500 0.0000 1.0000
vt 0.8611 0.0000 1.0000
vt 0.9167 0.0000 1.0000
vt 0.9722 0.0000 1.0000
vt 0.0278 0.0000 1.0000
vt -0.0278 0.0000 1.0000
vt 0.0833 0.0000 1.0000
vt 0.1389 0.0000 1.0000
vt 0.1944 0.0000 1.0000
vt 0.2500 0.0000 1.0000
vt 0.3056 0.0000 1.0000
vt 0.3611 0.0000 1.0000
vt 0.4167 0.0000 1.0000
vt 0.4722 0.0000 1.0000
vt 0.5278 0.0000 1.0000
vt 0.5833 0.0000 1.0000
vt 0.6389 0.0000 1.0000
vt 0.6944 0.0000 1.0000
vt 0.8056 1.0000 1.0000
vt 0.7500 1.0000 1.0000
vt 0.8611 1.0000 1.0000
vt 0.9167 1.0000 1.0000
vt 0.9722 1.0000 1.0000
vt 0.0278 1.0000 1.0000
vt -0.0278 1.0000 1.0000
vt 0.0833 1.0000 1.0000
vt 0.1389 1.0000 1.0000
vt 0.1944 1.0000 1.0000
vt 0.2500 1.0000 1.0000
vt 0.3056 1.0000 1.0000
vt 0.3611 1.0000 1.0000
vt 0.4167 1.0000 1.0000
vt 0.4722 1.0000 1.0000
vt 0.5278 1.0000 1.0000
vt 0.5833 1.0000 1.0000
vt 0.6389 1.0000 1.0000
vt 0.6944 1.0000 1.0000
vt 0.5000 1.0000 0.0000
# 40 texture coords

o Cylinder001
g Cylinder001
usemtl wire_026026026
s 1
f 25/39/27 26/40/27 27/41/27 
f 25/39/27 28/42/27 26/40/27 
f 25/39/27 29/43/27 28/42/27 
f 25/39/27 30/44/27 29/43/27 
f 25/39/27 31/45/27 30/46/27 
f 25/39/27 32/47/27 31/45/27 
f 25/39/27 33/48/27 32/47/27 
f 25/39/27 34/49/27 33/48/27 
f 25/39/27 35/50/27 34/49/27 
f 25/39/27 36/51/27 35/50/27 
f 25/39/27 37/52/27 36/51/27 
f 25/39/27 38/53/27 37/52/27 
f 25/39/27 39/54/27 38/53/27 
f 25/39/27 40/55/27 39/54/27 
f 25/39/27 41/56/27 40/55/27 
f 25/39/27 42/57/27 41/56/27 
f 25/39/27 43/58/27 42/57/27 
f 25/39/27 27/41/27 43/58/27 
s 8
f 27/41/28 44/59/29 45/60/28 
f 27/41/28 26/40/29 44/59/29 
f 26/40/29 46/61/30 44/59/29 
f 26/40/29 28/42/30 46/61/30 
f 28/42/30 47/62/31 46/61/30 
f 28/42/30 29/43/31 47/62/31 
f 29/43/31 48/63/32 47/62/31 
f 29/43/31 30/44/32 48/63/32 
f 30/46/32 49/64/33 48/65/32 
f 30/46/32 31/45/33 49/64/33 
f 31/45/33 50/66/34 49/64/33 
f 31/45/33 32/47/34 50/66/34 
f 32/47/34 51/67/35 50/66/34 
f 32/47/34 33/48/35 51/67/35 
f 33/48/35 52/68/36 51/67/35 
f 33/48/35 34/49/36 52/68/36 
f 34/49/36 53/69/37 52/68/36 
f 34/49/36 35/50/37 53/69/37 
f 35/50/37 54/70/38 53/69/37 
f 35/50/37 36/51/38 54/70/38 
f 36/51/38 55/71/39 54/70/38 
f 36/51/38 37/52/39 55/71/39 
f 37/52/39 56/72/40 55/71/39 
f 37/52/39 38/53/40 56/72/40 
f 38/53/40 57/73/41 56/72/40 
f 38/53/40 39/54/41 57/73/41 
f 39/54/41 58/74/42 57/73/41 
f 39/54/41 40/55/42 58/74/42 
f 40/55/42 59/75/43 58/74/42 
f 40/55/42 41/56/43 59/75/43 
f 41/56/43 60/76/44 59/75/43 
f 41/56/43 42/57/44 60/76/44 
f 42/57/44 61/77/45 60/76/44 
f 42/57/44 43/58/45 61/77/45 
f 43/58/45 45/60/28 61/77/45 
f 43/58/45 27/41/28 45/60/28 
s 1
f 62/78/46 45/60/46 44/59/46 
f 62/78/46 44/59/46 46/61/46 
f 62/78/46 46/61/46 47/62/46 
f 62/78/46 47/62/46 48/63/46 
f 62/78/46 48/65/46 49/64/46 
f 62/78/46 49/64/46 50/66/46 
f 62/78/46 50/66/46 51/67/46 
f 62/78/46 51/67/46 52/68/46 
f 62/78/46 52/68/46 53/69/46 
f 62/78/46 53/69/46 54/70/46 
f 62/78/46 54/70/46 55/71/46 
f 62/78/46 55/71/46 56/72/46 
f 62/78/46 56/72/46 57/73/46 
f 62/78/46 57/73/46 58/74/46 
f 62/78/46 58/74/46 59/75/46 
f 62/78/46 59/75/46 60/76/46 
f 62/78/46 60/76/46 61/77/46 
f 62/78/46 61/77/46 45/60/46 
# 72 faces

#
# object Cylinder002
#

v  -0.6004 0.0162 -0.9681
v  -0.6004 -0.5831 -1.1862
v  -0.6004 -0.6215 -0.9681
v  -0.6004 -0.4723 -1.3781
v  -0.6004 -0.3026 -1.5204
v  -0.6004 -0.0945 -1.5962
v  -0.6004 0.1270 -1.5962
v  -0.6004 0.3351 -1.5204
v  -0.6004 0.5048 -1.3781
v  -0.6004 0.6156 -1.1862
v  -0.6004 0.6540 -0.9681
v  -0.6004 0.6156 -0.7500
v  -0.6004 0.5048 -0.5581
v  -0.6004 0.3351 -0.4158
v  -0.6004 0.1270 -0.3400
v  -0.6004 -0.0945 -0.3400
v  -0.6004 -0.3026 -0.4158
v  -0.6004 -0.4723 -0.5581
v  -0.6004 -0.5831 -0.7500
v  -0.3955 -0.5831 -1.1862
v  -0.3955 -0.6215 -0.9681
v  -0.3955 -0.4723 -1.3781
v  -0.3955 -0.3026 -1.5204
v  -0.3955 -0.0945 -1.5962
v  -0.3955 0.1270 -1.5962
v  -0.3955 0.3351 -1.5204
v  -0.3955 0.5048 -1.3781
v  -0.3955 0.6156 -1.1862
v  -0.3955 0.6540 -0.9681
v  -0.3955 0.6156 -0.7500
v  -0.3955 0.5048 -0.5581
v  -0.3955 0.3351 -0.4158
v  -0.3955 0.1270 -0.3400
v  -0.3955 -0.0945 -0.3400
v  -0.3955 -0.3026 -0.4158
v  -0.3955 -0.4723 -0.5581
v  -0.3955 -0.5831 -0.7500
v  -0.3955 0.0162 -0.9681
# 38 vertices

vn -1.0000 0.0000 -0.0000
vn -0.0000 -1.0000 0.0000
vn -0.0000 -0.9397 -0.3420
vn -0.0000 -0.7660 -0.6428
vn -0.0000 -0.5000 -0.8660
vn -0.0000 -0.1736 -0.9848
vn 0.0000 0.1736 -0.9848
vn 0.0000 0.5000 -0.8660
vn 0.0000 0.7660 -0.6428
vn 0.0000 0.9397 -0.3420
vn 0.0000 1.0000 -0.0000
vn 0.0000 0.9397 0.3420
vn 0.0000 0.7660 0.6428
vn 0.0000 0.5000 0.8660
vn 0.0000 0.1736 0.9848
vn -0.0000 -0.1736 0.9848
vn -0.0000 -0.5000 0.8660
vn -0.0000 -0.7660 0.6428
vn -0.0000 -0.9397 0.3420
vn 1.0000 -0.0000 -0.0000
# 20 vertex normals

vt 0.5000 0.0000 0.0000
vt 0.8056 0.0000 1.0000
vt 0.7500 0.0000 1.0000
vt 0.8611 0.0000 1.0000
vt 0.9167 0.0000 1.0000
vt 0.9722 0.0000 1.0000
vt 0.0278 0.0000 1.0000
vt -0.0278 0.0000 1.0000
vt 0.0833 0.0000 1.0000
vt 0.1389 0.0000 1.0000
vt 0.1944 0.0000 1.0000
vt 0.2500 0.0000 1.0000
vt 0.3056 0.0000 1.0000
vt 0.3611 0.0000 1.0000
vt 0.4167 0.0000 1.0000
vt 0.4722 0.0000 1.0000
vt 0.5278 0.0000 1.0000
vt 0.5833 0.0000 1.0000
vt 0.6389 0.0000 1.0000
vt 0.6944 0.0000 1.0000
vt 0.8056 1.0000 1.0000
vt 0.7500 1.0000 1.0000
vt 0.8611 1.0000 1.0000
vt 0.9167 1.0000 1.0000
vt 0.9722 1.0000 1.0000
vt 0.0278 1.0000 1.0000
vt -0.0278 1.0000 1.0000
vt 0.0833 1.0000 1.0000
vt 0.1389 1.0000 1.0000
vt 0.1944 1.0000 1.0000
vt 0.2500 1.0000 1.0000
vt 0.3056 1.0000 1.0000
vt 0.3611 1.0000 1.0000
vt 0.4167 1.0000 1.0000
vt 0.4722 1.0000 1.0000
vt 0.5278 1.0000 1.0000
vt 0.5833 1.0000 1.0000
vt 0.6389 1.0000 1.0000
vt 0.6944 1.0000 1.0000
vt 0.5000 1.0000 0.0000
# 40 texture coords

o Cylinder002
g Cylinder002
usemtl wire_026026026
s 1
f 63/79/47 64/80/47 65/81/47 
f 63/79/47 66/82/47 64/80/47 
f 63/79/47 67/83/47 66/82/47 
f 63/79/47 68/84/47 67/83/47 
f 63/79/47 69/85/47 68/86/47 
f 63/79/47 70/87/47 69/85/47 
f 63/79/47 71/88/47 70/87/47 
f 63/79/47 72/89/47 71/88/47 
f 63/79/47 73/90/47 72/89/47 
f 63/79/47 74/91/47 73/90/47 
f 63/79/47 75/92/47 74/91/47 
f 63/79/47 76/93/47 75/92/47 
f 63/79/47 77/94/47 76/93/47 
f 63/79/47 78/95/47 77/94/47 
f 63/79/47 79/96/47 78/95/47 
f 63/79/47 80/97/47 79/96/47 
f 63/79/47 81/98/47 80/97/47 
f 63/79/47 65/81/47 81/98/47 
s 8
f 65/81/48 82/99/49 83/100/48 
f 65/81/48 64/80/49 82/99/49 
f 64/80/49 84/101/50 82/99/49 
f 64/80/49 66/82/50 84/101/50 
f 66/82/50 85/102/51 84/101/50 
f 66/82/50 67/83/51 85/102/51 
f 67/83/51 86/103/52 85/102/51 
f 67/83/51 68/84/52 86/103/52 
f 68/86/52 87/104/53 86/105/52 
f 68/86/52 69/85/53 87/104/53 
f 69/85/53 88/106/54 87/104/53 
f 69/85/53 70/87/54 88/106/54 
f 70/87/54 89/107/55 88/106/54 
f 70/87/54 71/88/55 89/107/55 
f 71/88/55 90/108/56 89/107/55 
f 71/88/55 72/89/56 90/108/56 
f 72/89/56 91/109/57 90/108/56 
f 72/89/56 73/90/57 91/109/57 
f 73/90/57 92/110/58 91/109/57 
f 73/90/57 74/91/58 92/110/58 
f 74/91/58 93/111/59 92/110/58 
f 74/91/58 75/92/59 93/111/59 
f 75/92/59 94/112/60 93/111/59 
f 75/92/59 76/93/60 94/112/60 
f 76/93/60 95/113/61 94/112/60 
f 76/93/60 77/94/61 95/113/61 
f 77/94/61 96/114/62 95/113/61 
f 77/94/61 78/95/62 96/114/62 
f 78/95/62 97/115/63 96/114/62 
f 78/95/62 79/96/63 97/115/63 
f 79/96/63 98/116/64 97/115/63 
f 79/96/63 80/97/64 98/116/64 
f 80/97/64 99/117/65 98/116/64 
f 80/97/64 81/98/65 99/117/65 
f 81/98/65 83/100/48 99/117/65 
f 81/98/65 65/81/48 83/100/48 
s 1
f 100/118/66 83/100/66 82/99/66 
f 100/118/66 82/99/66 84/101/66 
f 100/118/66 84/101/66 85/102/66 
f 100/118/66 85/102/66 86/103/66 
f 100/118/66 86/105/66 87/104/66 
f 100/118/66 87/104/66 88/106/66 
f 100/118/66 88/106/66 89/107/66 
f 100/118/66 89/107/66 90/108/66 
f 100/118/66 90/108/66 91/109/66 
f 100/118/66 91/109/66 92/110/66 
f 100/118/66 92/110/66 93/111/66 
f 100/118/66 93/111/66 94/112/66 
f 100/118/66 94/112/66 95/113/66 
f 100/118/66 95/113/66 96/114/66 
f 100/118/66 96/114/66 97/115/66 
f 100/118/66 97/115/66 98/116/66 
f 100/118/66 98/116/66 99/117/66 
f 100/118/66 99/117/66 83/100/66 
# 72 faces

